linear regression
…
## Parsed with column specification:
## cols(
##   y = col_integer(),
##   company = col_character(),
##   subway = col_integer(),
##   year = col_integer(),
##   size = col_integer(),
##   volume = col_integer()
## )

apt

## # A tibble: 236 x 6
##        y company subway  year  size volume
##    <int> <chr>    <int> <int> <int>  <int>
##  1 31000 GN           0  1984    32    678
##  2 26000 HD           1  1984    31    416
##  3 47500 HD           1  1984    46    416
##  4 59000 HD           1  1984    58    416
##  5 31000 HD           1  1985    32    558
##  6 56000 HD           1  1985    48    558
##  7 56000 HD           1  1985    49    558
##  8 65000 HD           1  1985    59    558
##  9 25500 WS           1  1985    34    405
## 10 49000 WS           1  1985    47    405
## # ... with 226 more rows
…
####package  library(dummies)  .

###as.numeric
apt$bigcompany <- as.numeric(apt$company=='HD' | apt$company=='SS')

apt

## # A tibble: 236 x 7
##        y company subway  year  size volume bigcompany
##    <int> <chr>    <int> <int> <int>  <int>      <dbl>
##  1 31000 GN           0  1984    32    678          0
##  2 26000 HD           1  1984    31    416          1
##  3 47500 HD           1  1984    46    416          1
##  4 59000 HD           1  1984    58    416          1
##  5 31000 HD           1  1985    32    558          1
##  6 56000 HD           1  1985    48    558          1
##  7 56000 HD           1  1985    49    558          1
##  8 65000 HD           1  1985    59    558          1
##  9 25500 WS           1  1985    34    405          0
## 10 49000 WS           1  1985    47    405          0
## # ... with 226 more rows
…
